<svg width="1064" height="1081" viewBox="0 0 1064 1081" fill="none" xmlns="http://www.w3.org/2000/svg">
<path d="M885.723 391.371C867.236 423.782 878.524 465.044 910.935 483.531C943.346 502.018 984.608 490.731 1003.1 458.319L1006.68 452.031C1025.17 419.62 1013.88 378.359 981.47 359.871C949.059 341.384 907.797 352.672 889.31 385.083L885.723 391.371Z" fill="url(#paint0_linear)" fill-opacity="0.5"/>
<path d="M774.957 351.802C757.461 382.477 768.143 421.528 798.818 439.025C829.493 456.522 868.544 445.839 886.041 415.164C903.538 384.489 892.855 345.438 862.18 327.941C831.505 310.444 792.454 321.127 774.957 351.802Z" fill="url(#paint1_linear)" fill-opacity="0.5"/>
<path d="M731.957 475.889C719.412 497.882 727.071 525.881 749.064 538.426C771.058 550.971 799.057 543.312 811.602 521.318L821.166 504.551C833.711 482.558 826.051 454.559 804.058 442.014C782.065 429.469 754.066 437.128 741.521 459.122L731.957 475.889Z" fill="url(#paint2_linear)" fill-opacity="0.5"/>
<path d="M659.738 551.366L670.217 557.343C692.789 570.218 721.525 562.357 734.4 539.785L734.4 539.785C747.275 517.213 739.414 488.477 716.842 475.602L706.363 469.625C683.79 456.749 655.055 464.61 642.18 487.183L642.18 487.183C629.304 509.755 637.165 538.491 659.738 551.366Z" fill="url(#paint3_linear)" fill-opacity="0.5"/>
<path d="M668.972 303.849L668.972 303.849C687.492 314.414 711.07 307.964 721.635 289.443L725.221 283.155C735.785 264.634 729.335 241.056 710.815 230.492L710.815 230.492C692.294 219.928 668.716 226.378 658.152 244.899L654.565 251.186C644.001 269.707 650.451 293.285 668.972 303.849Z" fill="url(#paint4_linear)" fill-opacity="0.5"/>
<path d="M610.725 428.963L616.083 432.019C640.069 445.701 670.606 437.348 684.287 413.361L684.952 412.195C698.634 388.209 690.281 357.673 666.294 343.991L660.936 340.935C636.95 327.253 606.414 335.606 592.732 359.593L592.067 360.759C578.385 384.745 586.739 415.281 610.725 428.963Z" fill="url(#paint5_linear)" fill-opacity="0.5"/>
<path d="M527.221 445.223C514.676 467.216 522.336 495.215 544.329 507.76C566.322 520.305 594.321 512.646 606.866 490.652C619.411 468.659 611.752 440.66 589.758 428.115C567.765 415.57 539.766 423.229 527.221 445.223Z" fill="url(#paint6_linear)" fill-opacity="0.5"/>
<path d="M496.846 447.342L496.846 447.342C520.575 460.878 550.785 452.614 564.32 428.884L565.516 426.788C579.051 403.059 570.787 372.849 547.057 359.314L547.057 359.314C523.327 345.779 493.118 354.043 479.583 377.772L478.387 379.868C464.852 403.598 473.116 433.807 496.846 447.342Z" fill="url(#paint7_linear)" fill-opacity="0.5"/>
<path d="M405.157 484.216L408.419 486.076C432.405 499.758 462.942 491.404 476.624 467.418L479.68 462.06C493.361 438.074 485.008 407.537 461.021 393.856L457.76 391.995C433.773 378.313 403.237 386.667 389.555 410.653L386.499 416.011C372.817 439.997 381.171 470.534 405.157 484.216Z" fill="url(#paint8_linear)" fill-opacity="0.5"/>
<path d="M302.768 458.867L302.768 458.867C321.289 469.431 344.867 462.981 355.431 444.46L355.431 444.46C365.995 425.939 359.545 402.361 341.025 391.797L341.025 391.797C322.504 381.233 298.926 387.683 288.362 406.204L288.362 406.204C277.797 424.724 284.247 448.302 302.768 458.867Z" fill="url(#paint9_linear)" fill-opacity="0.5"/>
<path d="M687.734 375.664L689.83 376.859C707.772 387.093 730.613 380.845 740.847 362.903C751.081 344.961 744.832 322.12 726.89 311.886L724.795 310.69C706.853 300.456 684.011 306.704 673.777 324.646C663.543 342.588 669.792 365.43 687.734 375.664Z" fill="url(#paint10_linear)" fill-opacity="0.5"/>
<path d="M388.02 401.935L388.02 401.935C406.54 412.499 430.118 406.049 440.683 387.529L440.683 387.528C451.247 369.008 444.797 345.43 426.276 334.865L426.276 334.865C407.755 324.301 384.177 330.751 373.613 349.272L373.613 349.272C363.049 367.793 369.499 391.371 388.02 401.935Z" fill="url(#paint11_linear)" fill-opacity="0.5"/>
<path d="M868.361 406.685C849.873 439.096 861.161 480.358 893.572 498.845C925.983 517.333 967.245 506.045 985.732 473.634L989.319 467.346C1007.81 434.934 996.519 393.673 964.107 375.186C931.696 356.698 890.435 367.986 871.947 400.397L868.361 406.685Z" fill="url(#paint12_linear)" fill-opacity="0.1"/>
<path d="M757.595 367.117C740.098 397.792 750.781 436.843 781.456 454.339C812.131 471.836 851.182 461.153 868.679 430.479C886.175 399.804 875.493 360.753 844.818 343.256C814.143 325.759 775.092 336.442 757.595 367.117Z" fill="url(#paint13_linear)" fill-opacity="0.1"/>
<path d="M714.594 491.204C702.049 513.198 709.708 541.197 731.702 553.742C753.695 566.287 781.694 558.627 794.239 536.634L803.803 519.866C816.348 497.873 808.689 469.874 786.695 457.329C764.702 444.784 736.703 452.443 724.158 474.437L714.594 491.204Z" fill="url(#paint14_linear)" fill-opacity="0.1"/>
<path d="M642.375 566.68L652.854 572.657C675.427 585.532 704.162 577.672 717.037 555.099L717.038 555.099C729.913 532.527 722.052 503.791 699.479 490.916L689 484.939C666.428 472.064 637.692 479.925 624.817 502.497L624.817 502.497C611.942 525.069 619.803 553.805 642.375 566.68Z" fill="url(#paint15_linear)" fill-opacity="0.1"/>
<path d="M670.371 390.978L672.467 392.173C690.409 402.407 713.25 396.159 723.484 378.217C733.719 360.275 727.47 337.434 709.528 327.2L707.432 326.004C689.49 315.77 666.649 322.019 656.415 339.961C646.181 357.903 652.429 380.744 670.371 390.978Z" fill="url(#paint16_linear)" fill-opacity="0.1"/>
<path d="M651.609 319.164L651.609 319.164C670.13 329.728 693.708 323.278 704.272 304.757L707.859 298.469C718.423 279.948 711.973 256.37 693.452 245.806L693.452 245.806C674.931 235.242 651.353 241.692 640.789 260.213L637.203 266.501C626.638 285.021 633.088 308.599 651.609 319.164Z" fill="url(#paint17_linear)" fill-opacity="0.1"/>
<path d="M593.362 444.278L598.72 447.334C622.707 461.015 653.243 452.662 666.925 428.675L667.59 427.51C681.272 403.523 672.918 372.987 648.931 359.305L643.574 356.249C619.587 342.567 589.051 350.921 575.369 374.907L574.704 376.073C561.022 400.059 569.376 430.596 593.362 444.278Z" fill="url(#paint18_linear)" fill-opacity="0.1"/>
<path d="M509.859 460.538C497.314 482.531 504.973 510.53 526.966 523.075C548.96 535.62 576.959 527.961 589.504 505.967C602.049 483.974 594.389 455.975 572.396 443.43C550.402 430.885 522.404 438.544 509.859 460.538Z" fill="url(#paint19_linear)" fill-opacity="0.1"/>
<path d="M479.482 462.657L479.482 462.657C503.212 476.192 533.421 467.928 546.957 444.198L548.152 442.102C561.687 418.373 553.423 388.163 529.693 374.628L529.693 374.628C505.964 361.093 475.754 369.357 462.219 393.086L461.024 395.182C447.488 418.912 455.752 449.121 479.482 462.657Z" fill="url(#paint20_linear)" fill-opacity="0.1"/>
<path d="M396.316 498.457L399.577 500.317C423.564 513.999 454.1 505.646 467.782 481.659L470.838 476.302C484.52 452.315 476.166 421.779 452.18 408.097L448.918 406.237C424.931 392.555 394.395 400.908 380.713 424.895L377.657 430.252C363.975 454.239 372.329 484.775 396.316 498.457Z" fill="url(#paint21_linear)" fill-opacity="0.1"/>
<path d="M370.657 417.25L370.657 417.25C389.178 427.815 412.756 421.365 423.32 402.844L423.32 402.844C433.884 384.323 427.434 360.745 408.913 350.181L408.913 350.181C390.392 339.616 366.814 346.067 356.25 364.587L356.25 364.587C345.686 383.108 352.136 406.686 370.657 417.25Z" fill="url(#paint22_linear)" fill-opacity="0.1"/>
<path d="M185.663 685.402C201.615 651.671 187.201 611.395 153.469 595.443C119.738 579.492 79.4615 593.906 63.5101 627.637L60.4155 634.181C44.4641 667.913 58.8778 708.189 92.6095 724.141C126.341 740.092 166.617 725.678 182.569 691.946L185.663 685.402Z" fill="url(#paint23_linear)" fill-opacity="0.5"/>
<path d="M299.134 716.374C314.231 684.449 300.589 646.331 268.665 631.234C236.74 616.137 198.622 629.779 183.525 661.703C168.428 693.628 182.07 731.746 213.994 746.843C245.919 761.94 284.037 748.298 299.134 716.374Z" fill="url(#paint24_linear)" fill-opacity="0.5"/>
<path d="M332.507 589.359C343.332 566.469 333.551 539.139 310.661 528.315C287.772 517.491 260.442 527.271 249.618 550.161L241.365 567.611C230.541 590.501 240.322 617.831 263.211 628.655C286.101 639.479 313.431 629.698 324.255 606.809L332.507 589.359Z" fill="url(#paint25_linear)" fill-opacity="0.5"/>
<path d="M398.735 508.574L387.829 503.416C364.337 492.307 336.288 502.345 325.179 525.837L325.179 525.837C314.07 549.329 324.108 577.378 347.6 588.487L358.506 593.645C381.998 604.754 410.047 594.716 421.156 571.224L421.156 571.224C432.265 547.732 422.227 519.683 398.735 508.574Z" fill="url(#paint26_linear)" fill-opacity="0.5"/>
<path d="M408.48 756.07L408.48 756.07C389.205 746.955 366.19 755.192 357.075 774.467L353.98 781.011C344.865 800.286 353.102 823.301 372.377 832.416L372.377 832.416C391.652 841.531 414.667 833.295 423.782 814.02L426.877 807.476C435.992 788.2 427.756 765.185 408.48 756.07Z" fill="url(#paint27_linear)" fill-opacity="0.5"/>
<path d="M456.976 626.864L451.4 624.227C426.436 612.422 396.629 623.089 384.824 648.053L384.251 649.266C372.445 674.23 383.113 704.037 408.076 715.842L413.652 718.479C438.616 730.284 468.423 719.617 480.228 694.653L480.802 693.44C492.607 668.476 481.94 638.669 456.976 626.864Z" fill="url(#paint28_linear)" fill-opacity="0.5"/>
<path d="M538.99 604.259C549.814 581.369 540.033 554.039 517.144 543.215C494.255 532.391 466.924 542.171 456.1 565.061C445.276 587.95 455.057 615.28 477.946 626.105C500.835 636.929 528.166 627.148 538.99 604.259Z" fill="url(#paint29_linear)" fill-opacity="0.5"/>
<path d="M569.114 599.819L569.114 599.819C544.417 588.14 514.93 598.693 503.251 623.39L502.22 625.571C490.541 650.267 501.094 679.755 525.79 691.434L525.79 691.434C550.487 703.113 579.975 692.56 591.653 667.863L592.685 665.682C604.363 640.986 593.81 611.498 569.114 599.819Z" fill="url(#paint30_linear)" fill-opacity="0.5"/>
<path d="M657.71 556.034L654.315 554.429C629.352 542.624 599.545 553.291 587.74 578.255L585.103 583.831C573.298 608.794 583.965 638.601 608.928 650.406L612.323 652.012C637.287 663.817 667.094 653.15 678.899 628.186L681.536 622.61C693.341 597.646 682.674 567.839 657.71 556.034Z" fill="url(#paint31_linear)" fill-opacity="0.5"/>
<path d="M761.74 573.469L761.739 573.469C742.464 564.354 719.449 572.59 710.334 591.865L710.334 591.866C701.219 611.141 709.455 634.156 728.731 643.271L728.731 643.271C748.006 652.386 771.021 644.15 780.136 624.874L780.136 624.874C789.251 605.599 781.015 582.584 761.74 573.469Z" fill="url(#paint32_linear)" fill-opacity="0.5"/>
<path d="M384.274 685.904L382.093 684.872C363.42 676.042 341.124 684.021 332.294 702.694C323.464 721.367 331.443 743.663 350.116 752.493L352.297 753.524C370.97 762.355 393.266 754.376 402.096 735.703C410.926 717.03 402.947 694.734 384.274 685.904Z" fill="url(#paint33_linear)" fill-opacity="0.5"/>
<path d="M681.097 636.761L681.097 636.761C661.822 627.646 638.807 635.882 629.692 655.157L629.692 655.157C620.577 674.433 628.813 697.448 648.089 706.563L648.089 706.563C667.364 715.678 690.379 707.441 699.494 688.166L699.494 688.166C708.609 668.891 700.373 645.876 681.097 636.761Z" fill="url(#paint34_linear)" fill-opacity="0.5"/>
<path d="M832.928 620.479C840.334 604.817 833.642 586.118 817.981 578.712C802.32 571.306 783.62 577.998 776.214 593.659L775.183 595.84C767.777 611.501 774.469 630.201 790.13 637.607C805.791 645.013 824.491 638.321 831.897 622.66L832.928 620.479Z" fill="url(#paint35_linear)" fill-opacity="0.5"/>
<path d="M201.802 668.804C217.754 635.072 203.34 594.796 169.608 578.844C135.877 562.893 95.6005 577.307 79.6491 611.039L76.5545 617.582C60.6031 651.314 75.0168 691.59 108.749 707.542C142.48 723.493 182.756 709.079 198.708 675.348L201.802 668.804Z" fill="url(#paint36_linear)" fill-opacity="0.1"/>
<path d="M315.273 699.775C330.37 667.85 316.728 629.732 284.804 614.635C252.879 599.538 214.761 613.18 199.664 645.104C184.567 677.029 198.209 715.147 230.133 730.244C262.058 745.341 300.176 731.699 315.273 699.775Z" fill="url(#paint37_linear)" fill-opacity="0.1"/>
<path d="M348.647 572.759C359.471 549.87 349.69 522.539 326.801 511.715C303.911 500.891 276.581 510.672 265.757 533.561L257.505 551.012C246.68 573.901 256.461 601.231 279.351 612.055C302.24 622.88 329.57 613.099 340.394 590.209L348.647 572.759Z" fill="url(#paint38_linear)" fill-opacity="0.1"/>
<path d="M414.874 491.975L403.968 486.818C380.476 475.709 352.427 485.747 341.318 509.238L341.318 509.239C330.209 532.73 340.247 560.78 363.739 571.889L374.645 577.046C398.137 588.155 426.186 578.117 437.295 554.625L437.295 554.625C448.404 531.134 438.366 503.084 414.874 491.975Z" fill="url(#paint39_linear)" fill-opacity="0.1"/>
<path d="M400.413 669.305L398.232 668.273C379.559 659.443 357.263 667.422 348.433 686.095C339.603 704.768 347.582 727.064 366.255 735.894L368.436 736.926C387.109 745.756 409.405 737.777 418.235 719.104C427.065 700.431 419.086 678.135 400.413 669.305Z" fill="url(#paint40_linear)" fill-opacity="0.1"/>
<path d="M424.619 739.472L424.619 739.472C405.344 730.357 382.329 738.593 373.214 757.868L370.119 764.412C361.004 783.688 369.241 806.703 388.516 815.818L388.516 815.818C407.791 824.933 430.806 816.696 439.921 797.421L443.016 790.877C452.131 771.602 443.895 748.587 424.619 739.472Z" fill="url(#paint41_linear)" fill-opacity="0.1"/>
<path d="M473.115 610.266L467.539 607.629C442.575 595.824 412.768 606.491 400.963 631.455L400.39 632.668C388.584 657.631 399.252 687.438 424.215 699.244L429.791 701.88C454.755 713.685 484.562 703.018 496.367 678.055L496.941 676.841C508.746 651.878 498.079 622.071 473.115 610.266Z" fill="url(#paint42_linear)" fill-opacity="0.1"/>
<path d="M555.129 587.659C565.953 564.77 556.172 537.439 533.283 526.615C510.394 515.791 483.063 525.572 472.239 548.461C461.415 571.351 471.196 598.681 494.085 609.505C516.975 620.329 544.305 610.548 555.129 587.659Z" fill="url(#paint43_linear)" fill-opacity="0.1"/>
<path d="M585.254 583.221L585.254 583.221C560.557 571.542 531.07 582.095 519.391 606.791L518.359 608.972C506.681 633.669 517.234 663.157 541.93 674.835L541.93 674.835C566.627 686.514 596.115 675.961 607.793 651.265L608.825 649.084C620.503 624.387 609.95 594.899 585.254 583.221Z" fill="url(#paint44_linear)" fill-opacity="0.1"/>
<path d="M665.435 541.157L662.041 539.552C637.077 527.747 607.27 538.414 595.465 563.378L592.828 568.954C581.023 593.917 591.69 623.724 616.654 635.53L620.048 637.135C645.012 648.94 674.819 638.273 686.624 613.309L689.261 607.733C701.066 582.77 690.399 552.963 665.435 541.157Z" fill="url(#paint45_linear)" fill-opacity="0.1"/>
<path d="M777.879 556.87L777.878 556.87C758.603 547.755 735.588 555.991 726.473 575.266L726.473 575.267C717.358 594.542 725.594 617.557 744.87 626.672L744.87 626.672C764.145 635.787 787.16 627.551 796.275 608.275L796.275 608.275C805.39 589 797.154 565.985 777.879 556.87Z" fill="url(#paint46_linear)" fill-opacity="0.1"/>
<path d="M697.237 620.161L697.237 620.161C677.961 611.046 654.946 619.282 645.831 638.558L645.831 638.558C636.716 657.833 644.953 680.848 664.228 689.963L664.228 689.963C683.503 699.078 706.518 690.842 715.633 671.567L715.633 671.566C724.748 652.291 716.512 629.276 697.237 620.161Z" fill="url(#paint47_linear)" fill-opacity="0.1"/>
<path d="M849.067 603.88C856.473 588.218 849.781 569.519 834.12 562.113C818.458 554.707 799.759 561.399 792.353 577.06L791.321 579.241C783.915 594.903 790.607 613.602 806.269 621.008C821.93 628.414 840.629 621.722 848.035 606.061L849.067 603.88Z" fill="url(#paint48_linear)" fill-opacity="0.1"/>
<defs>
<linearGradient id="paint0_linear" x1="969.621" y1="517.005" x2="955.918" y2="350.483" gradientUnits="userSpaceOnUse">
<stop offset="0.09375" stop-color="#713BDB"/>
<stop offset="0.192708" stop-color="#713BDB"/>
<stop offset="1" stop-color="#F2522E"/>
</linearGradient>
<linearGradient id="paint1_linear" x1="854.36" y1="470.706" x2="845.518" y2="318.436" gradientUnits="userSpaceOnUse">
<stop offset="0.09375" stop-color="#713BDB"/>
<stop offset="0.192708" stop-color="#713BDB"/>
<stop offset="1" stop-color="#F2522E"/>
</linearGradient>
<linearGradient id="paint2_linear" x1="788.887" y1="561.141" x2="770.553" y2="438.419" gradientUnits="userSpaceOnUse">
<stop offset="0.09375" stop-color="#713BDB"/>
<stop offset="0.192708" stop-color="#713BDB"/>
<stop offset="1" stop-color="#F2522E"/>
</linearGradient>
<linearGradient id="paint3_linear" x1="711.088" y1="580.656" x2="710.586" y2="464.667" gradientUnits="userSpaceOnUse">
<stop offset="0.09375" stop-color="#713BDB"/>
<stop offset="0.192708" stop-color="#713BDB"/>
<stop offset="1" stop-color="#F2522E"/>
</linearGradient>
<linearGradient id="paint4_linear" x1="702.506" y1="322.978" x2="692.765" y2="225.552" gradientUnits="userSpaceOnUse">
<stop offset="0.09375" stop-color="#713BDB"/>
<stop offset="0.192708" stop-color="#713BDB"/>
<stop offset="1" stop-color="#F2522E"/>
</linearGradient>
<linearGradient id="paint5_linear" x1="659.514" y1="456.792" x2="654.988" y2="334.379" gradientUnits="userSpaceOnUse">
<stop offset="0.09375" stop-color="#713BDB"/>
<stop offset="0.192708" stop-color="#713BDB"/>
<stop offset="1" stop-color="#F2522E"/>
</linearGradient>
<linearGradient id="paint6_linear" x1="584.151" y1="530.475" x2="577.812" y2="421.3" gradientUnits="userSpaceOnUse">
<stop offset="0.09375" stop-color="#713BDB"/>
<stop offset="0.192708" stop-color="#713BDB"/>
<stop offset="1" stop-color="#F2522E"/>
</linearGradient>
<linearGradient id="paint7_linear" x1="539.812" y1="471.85" x2="531.53" y2="352.144" gradientUnits="userSpaceOnUse">
<stop offset="0.09375" stop-color="#713BDB"/>
<stop offset="0.192708" stop-color="#713BDB"/>
<stop offset="1" stop-color="#F2522E"/>
</linearGradient>
<linearGradient id="paint8_linear" x1="451.85" y1="510.849" x2="443.236" y2="385.395" gradientUnits="userSpaceOnUse">
<stop offset="0.09375" stop-color="#713BDB"/>
<stop offset="0.192708" stop-color="#713BDB"/>
<stop offset="1" stop-color="#F2522E"/>
</linearGradient>
<linearGradient id="paint9_linear" x1="336.303" y1="477.995" x2="330.965" y2="386.059" gradientUnits="userSpaceOnUse">
<stop offset="0.09375" stop-color="#713BDB"/>
<stop offset="0.192708" stop-color="#713BDB"/>
<stop offset="1" stop-color="#F2522E"/>
</linearGradient>
<linearGradient id="paint10_linear" x1="722.316" y1="395.39" x2="718.393" y2="305.436" gradientUnits="userSpaceOnUse">
<stop offset="0.09375" stop-color="#713BDB"/>
<stop offset="0.192708" stop-color="#713BDB"/>
<stop offset="1" stop-color="#F2522E"/>
</linearGradient>
<linearGradient id="paint11_linear" x1="421.554" y1="421.063" x2="416.216" y2="329.126" gradientUnits="userSpaceOnUse">
<stop offset="0.09375" stop-color="#713BDB"/>
<stop offset="0.192708" stop-color="#713BDB"/>
<stop offset="1" stop-color="#F2522E"/>
</linearGradient>
<linearGradient id="paint12_linear" x1="952.258" y1="532.32" x2="938.556" y2="365.797" gradientUnits="userSpaceOnUse">
<stop offset="0.192708" stop-color="#713BDB"/>
<stop offset="0.572917" stop-color="#713BDB"/>
<stop offset="0.59375" stop-color="#713BDB"/>
<stop offset="1" stop-color="#F2522E"/>
</linearGradient>
<linearGradient id="paint13_linear" x1="836.998" y1="486.02" x2="828.155" y2="333.75" gradientUnits="userSpaceOnUse">
<stop offset="0.192708" stop-color="#713BDB"/>
<stop offset="0.572917" stop-color="#713BDB"/>
<stop offset="0.59375" stop-color="#713BDB"/>
<stop offset="1" stop-color="#F2522E"/>
</linearGradient>
<linearGradient id="paint14_linear" x1="771.524" y1="576.456" x2="753.191" y2="453.736" gradientUnits="userSpaceOnUse">
<stop offset="0.192708" stop-color="#713BDB"/>
<stop offset="0.572917" stop-color="#713BDB"/>
<stop offset="0.59375" stop-color="#713BDB"/>
<stop offset="1" stop-color="#F2522E"/>
</linearGradient>
<linearGradient id="paint15_linear" x1="693.725" y1="595.97" x2="693.224" y2="479.981" gradientUnits="userSpaceOnUse">
<stop offset="0.192708" stop-color="#713BDB"/>
<stop offset="0.572917" stop-color="#713BDB"/>
<stop offset="0.59375" stop-color="#713BDB"/>
<stop offset="1" stop-color="#F2522E"/>
</linearGradient>
<linearGradient id="paint16_linear" x1="704.954" y1="410.704" x2="701.031" y2="320.75" gradientUnits="userSpaceOnUse">
<stop offset="0.192708" stop-color="#713BDB"/>
<stop offset="0.572917" stop-color="#713BDB"/>
<stop offset="0.59375" stop-color="#713BDB"/>
<stop offset="1" stop-color="#F2522E"/>
</linearGradient>
<linearGradient id="paint17_linear" x1="685.144" y1="338.292" x2="675.402" y2="240.866" gradientUnits="userSpaceOnUse">
<stop offset="0.192708" stop-color="#713BDB"/>
<stop offset="0.572917" stop-color="#713BDB"/>
<stop offset="0.59375" stop-color="#713BDB"/>
<stop offset="1" stop-color="#F2522E"/>
</linearGradient>
<linearGradient id="paint18_linear" x1="642.152" y1="472.107" x2="637.625" y2="349.694" gradientUnits="userSpaceOnUse">
<stop offset="0.192708" stop-color="#713BDB"/>
<stop offset="0.572917" stop-color="#713BDB"/>
<stop offset="0.59375" stop-color="#713BDB"/>
<stop offset="1" stop-color="#F2522E"/>
</linearGradient>
<linearGradient id="paint19_linear" x1="566.789" y1="545.79" x2="560.449" y2="436.616" gradientUnits="userSpaceOnUse">
<stop offset="0.192708" stop-color="#713BDB"/>
<stop offset="0.572917" stop-color="#713BDB"/>
<stop offset="0.59375" stop-color="#713BDB"/>
<stop offset="1" stop-color="#F2522E"/>
</linearGradient>
<linearGradient id="paint20_linear" x1="522.449" y1="487.165" x2="514.167" y2="367.457" gradientUnits="userSpaceOnUse">
<stop offset="0.192708" stop-color="#713BDB"/>
<stop offset="0.572917" stop-color="#713BDB"/>
<stop offset="0.59375" stop-color="#713BDB"/>
<stop offset="1" stop-color="#F2522E"/>
</linearGradient>
<linearGradient id="paint21_linear" x1="443.009" y1="525.091" x2="434.394" y2="399.636" gradientUnits="userSpaceOnUse">
<stop offset="0.192708" stop-color="#713BDB"/>
<stop offset="0.572917" stop-color="#713BDB"/>
<stop offset="0.59375" stop-color="#713BDB"/>
<stop offset="1" stop-color="#F2522E"/>
</linearGradient>
<linearGradient id="paint22_linear" x1="404.192" y1="436.379" x2="398.852" y2="344.442" gradientUnits="userSpaceOnUse">
<stop offset="0.192708" stop-color="#713BDB"/>
<stop offset="0.572917" stop-color="#713BDB"/>
<stop offset="0.59375" stop-color="#713BDB"/>
<stop offset="1" stop-color="#F2522E"/>
</linearGradient>
<linearGradient id="paint23_linear" x1="92.3927" y1="566.561" x2="118.805" y2="731.545" gradientUnits="userSpaceOnUse">
<stop offset="0.09375" stop-color="#713BDB"/>
<stop offset="0.192708" stop-color="#713BDB"/>
<stop offset="1" stop-color="#F2522E"/>
</linearGradient>
<linearGradient id="paint24_linear" x1="210.86" y1="603.899" x2="231.336" y2="755.045" gradientUnits="userSpaceOnUse">
<stop offset="0.09375" stop-color="#713BDB"/>
<stop offset="0.192708" stop-color="#713BDB"/>
<stop offset="1" stop-color="#F2522E"/>
</linearGradient>
<linearGradient id="paint25_linear" x1="269.216" y1="508.716" x2="296.893" y2="629.674" gradientUnits="userSpaceOnUse">
<stop offset="0.09375" stop-color="#713BDB"/>
<stop offset="0.192708" stop-color="#713BDB"/>
<stop offset="1" stop-color="#F2522E"/>
</linearGradient>
<linearGradient id="paint26_linear" x1="345.293" y1="483.302" x2="354.675" y2="598.911" gradientUnits="userSpaceOnUse">
<stop offset="0.09375" stop-color="#713BDB"/>
<stop offset="0.192708" stop-color="#713BDB"/>
<stop offset="1" stop-color="#F2522E"/>
</linearGradient>
<linearGradient id="paint27_linear" x1="373.579" y1="739.566" x2="390.752" y2="835.96" gradientUnits="userSpaceOnUse">
<stop offset="0.09375" stop-color="#713BDB"/>
<stop offset="0.192708" stop-color="#713BDB"/>
<stop offset="1" stop-color="#F2522E"/>
</linearGradient>
<linearGradient id="paint28_linear" x1="406.199" y1="602.852" x2="420.085" y2="724.56" gradientUnits="userSpaceOnUse">
<stop offset="0.09375" stop-color="#713BDB"/>
<stop offset="0.192708" stop-color="#713BDB"/>
<stop offset="1" stop-color="#F2522E"/>
</linearGradient>
<linearGradient id="paint29_linear" x1="475.699" y1="523.616" x2="490.379" y2="631.984" gradientUnits="userSpaceOnUse">
<stop offset="0.09375" stop-color="#713BDB"/>
<stop offset="0.192708" stop-color="#713BDB"/>
<stop offset="1" stop-color="#F2522E"/>
</linearGradient>
<linearGradient id="paint30_linear" x1="524.397" y1="578.673" x2="541.82" y2="697.394" gradientUnits="userSpaceOnUse">
<stop offset="0.09375" stop-color="#713BDB"/>
<stop offset="0.192708" stop-color="#713BDB"/>
<stop offset="1" stop-color="#F2522E"/>
</linearGradient>
<linearGradient id="paint31_linear" x1="609.115" y1="533.054" x2="627.31" y2="657.48" gradientUnits="userSpaceOnUse">
<stop offset="0.09375" stop-color="#713BDB"/>
<stop offset="0.192708" stop-color="#713BDB"/>
<stop offset="1" stop-color="#F2522E"/>
</linearGradient>
<linearGradient id="paint32_linear" x1="726.839" y1="556.964" x2="739.201" y2="648.222" gradientUnits="userSpaceOnUse">
<stop offset="0.09375" stop-color="#713BDB"/>
<stop offset="0.192708" stop-color="#713BDB"/>
<stop offset="1" stop-color="#F2522E"/>
</linearGradient>
<linearGradient id="paint33_linear" x1="348.283" y1="668.884" x2="359.083" y2="758.272" gradientUnits="userSpaceOnUse">
<stop offset="0.09375" stop-color="#713BDB"/>
<stop offset="0.192708" stop-color="#713BDB"/>
<stop offset="1" stop-color="#F2522E"/>
</linearGradient>
<linearGradient id="paint34_linear" x1="646.196" y1="620.256" x2="658.559" y2="711.515" gradientUnits="userSpaceOnUse">
<stop offset="0.09375" stop-color="#713BDB"/>
<stop offset="0.192708" stop-color="#713BDB"/>
<stop offset="1" stop-color="#F2522E"/>
</linearGradient>
<linearGradient id="paint35_linear" x1="789.624" y1="565.302" x2="801.256" y2="641.228" gradientUnits="userSpaceOnUse">
<stop offset="0.09375" stop-color="#713BDB"/>
<stop offset="0.192708" stop-color="#713BDB"/>
<stop offset="1" stop-color="#F2522E"/>
</linearGradient>
<linearGradient id="paint36_linear" x1="108.532" y1="549.962" x2="134.944" y2="714.946" gradientUnits="userSpaceOnUse">
<stop offset="0.192708" stop-color="#713BDB"/>
<stop offset="0.572917" stop-color="#713BDB"/>
<stop offset="0.59375" stop-color="#713BDB"/>
<stop offset="1" stop-color="#F2522E"/>
</linearGradient>
<linearGradient id="paint37_linear" x1="226.999" y1="587.3" x2="247.475" y2="738.446" gradientUnits="userSpaceOnUse">
<stop offset="0.192708" stop-color="#713BDB"/>
<stop offset="0.572917" stop-color="#713BDB"/>
<stop offset="0.59375" stop-color="#713BDB"/>
<stop offset="1" stop-color="#F2522E"/>
</linearGradient>
<linearGradient id="paint38_linear" x1="285.356" y1="492.116" x2="313.032" y2="613.073" gradientUnits="userSpaceOnUse">
<stop offset="0.192708" stop-color="#713BDB"/>
<stop offset="0.572917" stop-color="#713BDB"/>
<stop offset="0.59375" stop-color="#713BDB"/>
<stop offset="1" stop-color="#F2522E"/>
</linearGradient>
<linearGradient id="paint39_linear" x1="361.432" y1="466.703" x2="370.813" y2="582.313" gradientUnits="userSpaceOnUse">
<stop offset="0.192708" stop-color="#713BDB"/>
<stop offset="0.572917" stop-color="#713BDB"/>
<stop offset="0.59375" stop-color="#713BDB"/>
<stop offset="1" stop-color="#F2522E"/>
</linearGradient>
<linearGradient id="paint40_linear" x1="364.422" y1="652.285" x2="375.221" y2="741.675" gradientUnits="userSpaceOnUse">
<stop offset="0.192708" stop-color="#713BDB"/>
<stop offset="0.572917" stop-color="#713BDB"/>
<stop offset="0.59375" stop-color="#713BDB"/>
<stop offset="1" stop-color="#F2522E"/>
</linearGradient>
<linearGradient id="paint41_linear" x1="389.718" y1="722.967" x2="406.891" y2="819.361" gradientUnits="userSpaceOnUse">
<stop offset="0.192708" stop-color="#713BDB"/>
<stop offset="0.572917" stop-color="#713BDB"/>
<stop offset="0.59375" stop-color="#713BDB"/>
<stop offset="1" stop-color="#F2522E"/>
</linearGradient>
<linearGradient id="paint42_linear" x1="422.338" y1="586.254" x2="436.224" y2="707.961" gradientUnits="userSpaceOnUse">
<stop offset="0.192708" stop-color="#713BDB"/>
<stop offset="0.572917" stop-color="#713BDB"/>
<stop offset="0.59375" stop-color="#713BDB"/>
<stop offset="1" stop-color="#F2522E"/>
</linearGradient>
<linearGradient id="paint43_linear" x1="491.838" y1="507.016" x2="506.519" y2="615.384" gradientUnits="userSpaceOnUse">
<stop offset="0.192708" stop-color="#713BDB"/>
<stop offset="0.572917" stop-color="#713BDB"/>
<stop offset="0.59375" stop-color="#713BDB"/>
<stop offset="1" stop-color="#F2522E"/>
</linearGradient>
<linearGradient id="paint44_linear" x1="540.537" y1="562.074" x2="557.96" y2="680.796" gradientUnits="userSpaceOnUse">
<stop offset="0.192708" stop-color="#713BDB"/>
<stop offset="0.572917" stop-color="#713BDB"/>
<stop offset="0.59375" stop-color="#713BDB"/>
<stop offset="1" stop-color="#F2522E"/>
</linearGradient>
<linearGradient id="paint45_linear" x1="616.84" y1="518.177" x2="635.035" y2="642.604" gradientUnits="userSpaceOnUse">
<stop offset="0.192708" stop-color="#713BDB"/>
<stop offset="0.572917" stop-color="#713BDB"/>
<stop offset="0.59375" stop-color="#713BDB"/>
<stop offset="1" stop-color="#F2522E"/>
</linearGradient>
<linearGradient id="paint46_linear" x1="742.978" y1="540.365" x2="755.34" y2="631.623" gradientUnits="userSpaceOnUse">
<stop offset="0.192708" stop-color="#713BDB"/>
<stop offset="0.572917" stop-color="#713BDB"/>
<stop offset="0.59375" stop-color="#713BDB"/>
<stop offset="1" stop-color="#F2522E"/>
</linearGradient>
<linearGradient id="paint47_linear" x1="662.336" y1="603.657" x2="674.699" y2="694.914" gradientUnits="userSpaceOnUse">
<stop offset="0.192708" stop-color="#713BDB"/>
<stop offset="0.572917" stop-color="#713BDB"/>
<stop offset="0.59375" stop-color="#713BDB"/>
<stop offset="1" stop-color="#F2522E"/>
</linearGradient>
<linearGradient id="paint48_linear" x1="805.763" y1="548.703" x2="817.395" y2="624.631" gradientUnits="userSpaceOnUse">
<stop offset="0.192708" stop-color="#713BDB"/>
<stop offset="0.572917" stop-color="#713BDB"/>
<stop offset="0.59375" stop-color="#713BDB"/>
<stop offset="1" stop-color="#F2522E"/>
</linearGradient>
</defs>
</svg>
