<svg width="798" height="631" viewBox="0 0 798 631" fill="none" xmlns="http://www.w3.org/2000/svg">
<rect x="759.748" y="321.145" width="135.123" height="142.362" rx="67.5616" transform="rotate(-164.779 759.748 321.145)" fill="url(#paint0_linear)" fill-opacity="0.5"/>
<rect x="636.572" y="305.135" width="127.884" height="127.884" rx="63.9422" transform="rotate(-164.779 636.572 305.135)" fill="url(#paint1_linear)" fill-opacity="0.5"/>
<rect x="595.79" y="409.068" width="91.6907" height="110.994" rx="45.8454" transform="rotate(-164.779 595.79 409.068)" fill="url(#paint2_linear)" fill-opacity="0.5"/>
<rect x="525.341" y="447.415" width="106.168" height="94.1037" rx="47.0518" transform="rotate(-164.779 525.341 447.415)" fill="url(#paint3_linear)" fill-opacity="0.5"/>
<rect x="452.605" y="200.067" width="77.2133" height="84.452" rx="38.6066" transform="rotate(-164.779 452.605 200.067)" fill="url(#paint4_linear)" fill-opacity="0.5"/>
<rect x="444.436" y="340.381" width="106.168" height="101.342" rx="50" transform="rotate(-164.779 444.436 340.381)" fill="url(#paint5_linear)" fill-opacity="0.5"/>
<rect x="389.89" y="430.566" width="91.6907" height="91.6907" rx="45.8454" transform="rotate(-164.779 389.89 430.566)" fill="url(#paint6_linear)" fill-opacity="0.5"/>
<rect x="332.301" y="384.89" width="98.9295" height="101.342" rx="49.4647" transform="rotate(-164.779 332.301 384.89)" fill="url(#paint7_linear)" fill-opacity="0.5"/>
<rect x="256.884" y="444.643" width="103.755" height="106.168" rx="50" transform="rotate(-164.779 256.884 444.643)" fill="url(#paint8_linear)" fill-opacity="0.5"/>
<rect x="136.792" y="441.723" width="77.2133" height="77.2133" rx="38.6066" transform="rotate(-164.779 136.792 441.723)" fill="url(#paint9_linear)" fill-opacity="0.5"/>
<rect x="489.891" y="265.226" width="77.2133" height="74.8004" rx="37.4002" transform="rotate(-164.779 489.891 265.226)" fill="url(#paint10_linear)" fill-opacity="0.5"/>
<rect x="205.101" y="365.284" width="77.2133" height="77.2133" rx="38.6066" transform="rotate(-164.779 205.101 365.284)" fill="url(#paint11_linear)" fill-opacity="0.5"/>
<rect x="73.5167" y="444.512" width="62.7358" height="65.1487" rx="31.3679" transform="rotate(-164.779 73.5167 444.512)" fill="url(#paint12_linear)" fill-opacity="0.5"/>
<rect x="746.766" y="340.314" width="135.123" height="142.362" rx="67.5616" transform="rotate(-164.779 746.766 340.314)" fill="url(#paint13_linear)" fill-opacity="0.1"/>
<rect x="623.59" y="324.304" width="127.884" height="127.884" rx="63.9422" transform="rotate(-164.779 623.59 324.304)" fill="url(#paint14_linear)" fill-opacity="0.1"/>
<rect x="582.808" y="428.238" width="91.6907" height="110.994" rx="45.8454" transform="rotate(-164.779 582.808 428.238)" fill="url(#paint15_linear)" fill-opacity="0.1"/>
<rect x="512.359" y="466.584" width="106.168" height="94.1037" rx="47.0518" transform="rotate(-164.779 512.359 466.584)" fill="url(#paint16_linear)" fill-opacity="0.1"/>
<rect x="476.909" y="284.395" width="77.2133" height="74.8004" rx="37.4002" transform="rotate(-164.779 476.909 284.395)" fill="url(#paint17_linear)" fill-opacity="0.1"/>
<rect x="439.623" y="219.236" width="77.2133" height="84.452" rx="38.6066" transform="rotate(-164.779 439.623 219.236)" fill="url(#paint18_linear)" fill-opacity="0.1"/>
<rect x="431.454" y="359.55" width="106.168" height="101.342" rx="50" transform="rotate(-164.779 431.454 359.55)" fill="url(#paint19_linear)" fill-opacity="0.1"/>
<rect x="376.908" y="449.736" width="91.6907" height="91.6907" rx="45.8454" transform="rotate(-164.779 376.908 449.736)" fill="url(#paint20_linear)" fill-opacity="0.1"/>
<rect x="319.318" y="404.059" width="98.9295" height="101.342" rx="49.4647" transform="rotate(-164.779 319.318 404.059)" fill="url(#paint21_linear)" fill-opacity="0.1"/>
<rect x="251.884" y="460.643" width="103.755" height="106.168" rx="50" transform="rotate(-164.779 251.884 460.643)" fill="url(#paint22_linear)" fill-opacity="0.1"/>
<rect x="123.81" y="460.892" width="77.2133" height="77.2133" rx="38.6066" transform="rotate(-164.779 123.81 460.892)" fill="url(#paint23_linear)" fill-opacity="0.1"/>
<rect x="192.119" y="384.454" width="77.2133" height="77.2133" rx="38.6066" transform="rotate(-164.779 192.119 384.454)" fill="url(#paint24_linear)" fill-opacity="0.1"/>
<rect x="60.5352" y="463.681" width="62.7358" height="65.1487" rx="31.3679" transform="rotate(-164.779 60.5352 463.681)" fill="url(#paint25_linear)" fill-opacity="0.1"/>
<defs>
<linearGradient id="paint0_linear" x1="759.748" y1="321.145" x2="854.156" y2="459.002" gradientUnits="userSpaceOnUse">
<stop offset="0.09375" stop-color="#713BDB"/>
<stop offset="0.192708" stop-color="#713BDB"/>
<stop offset="1" stop-color="#F2522E"/>
</linearGradient>
<linearGradient id="paint1_linear" x1="636.572" y1="305.135" x2="719.697" y2="433.02" gradientUnits="userSpaceOnUse">
<stop offset="0.09375" stop-color="#713BDB"/>
<stop offset="0.192708" stop-color="#713BDB"/>
<stop offset="1" stop-color="#F2522E"/>
</linearGradient>
<linearGradient id="paint2_linear" x1="595.79" y1="409.068" x2="672.52" y2="506.584" gradientUnits="userSpaceOnUse">
<stop offset="0.09375" stop-color="#713BDB"/>
<stop offset="0.192708" stop-color="#713BDB"/>
<stop offset="1" stop-color="#F2522E"/>
</linearGradient>
<linearGradient id="paint3_linear" x1="525.341" y1="447.415" x2="583.245" y2="547.917" gradientUnits="userSpaceOnUse">
<stop offset="0.09375" stop-color="#713BDB"/>
<stop offset="0.192708" stop-color="#713BDB"/>
<stop offset="1" stop-color="#F2522E"/>
</linearGradient>
<linearGradient id="paint4_linear" x1="452.605" y1="200.067" x2="509.338" y2="279.867" gradientUnits="userSpaceOnUse">
<stop offset="0.09375" stop-color="#713BDB"/>
<stop offset="0.192708" stop-color="#713BDB"/>
<stop offset="1" stop-color="#F2522E"/>
</linearGradient>
<linearGradient id="paint5_linear" x1="444.436" y1="340.381" x2="509.019" y2="444.47" gradientUnits="userSpaceOnUse">
<stop offset="0.09375" stop-color="#713BDB"/>
<stop offset="0.192708" stop-color="#713BDB"/>
<stop offset="1" stop-color="#F2522E"/>
</linearGradient>
<linearGradient id="paint6_linear" x1="389.89" y1="430.566" x2="449.489" y2="522.257" gradientUnits="userSpaceOnUse">
<stop offset="0.09375" stop-color="#713BDB"/>
<stop offset="0.192708" stop-color="#713BDB"/>
<stop offset="1" stop-color="#F2522E"/>
</linearGradient>
<linearGradient id="paint7_linear" x1="332.301" y1="384.89" x2="398.805" y2="484.767" gradientUnits="userSpaceOnUse">
<stop offset="0.09375" stop-color="#713BDB"/>
<stop offset="0.192708" stop-color="#713BDB"/>
<stop offset="1" stop-color="#F2522E"/>
</linearGradient>
<linearGradient id="paint8_linear" x1="256.884" y1="444.643" x2="326.525" y2="549.348" gradientUnits="userSpaceOnUse">
<stop offset="0.09375" stop-color="#713BDB"/>
<stop offset="0.192708" stop-color="#713BDB"/>
<stop offset="1" stop-color="#F2522E"/>
</linearGradient>
<linearGradient id="paint9_linear" x1="136.792" y1="441.723" x2="186.98" y2="518.936" gradientUnits="userSpaceOnUse">
<stop offset="0.09375" stop-color="#713BDB"/>
<stop offset="0.192708" stop-color="#713BDB"/>
<stop offset="1" stop-color="#F2522E"/>
</linearGradient>
<linearGradient id="paint10_linear" x1="489.891" y1="265.226" x2="537.868" y2="341.418" gradientUnits="userSpaceOnUse">
<stop offset="0.09375" stop-color="#713BDB"/>
<stop offset="0.192708" stop-color="#713BDB"/>
<stop offset="1" stop-color="#F2522E"/>
</linearGradient>
<linearGradient id="paint11_linear" x1="205.101" y1="365.284" x2="255.29" y2="442.498" gradientUnits="userSpaceOnUse">
<stop offset="0.09375" stop-color="#713BDB"/>
<stop offset="0.192708" stop-color="#713BDB"/>
<stop offset="1" stop-color="#F2522E"/>
</linearGradient>
<linearGradient id="paint12_linear" x1="73.5167" y1="444.512" x2="116.491" y2="508.178" gradientUnits="userSpaceOnUse">
<stop offset="0.09375" stop-color="#713BDB"/>
<stop offset="0.192708" stop-color="#713BDB"/>
<stop offset="1" stop-color="#F2522E"/>
</linearGradient>
<linearGradient id="paint13_linear" x1="746.766" y1="340.314" x2="841.174" y2="478.171" gradientUnits="userSpaceOnUse">
<stop offset="0.192708" stop-color="#713BDB"/>
<stop offset="0.572917" stop-color="#713BDB"/>
<stop offset="0.59375" stop-color="#713BDB"/>
<stop offset="1" stop-color="#F2522E"/>
</linearGradient>
<linearGradient id="paint14_linear" x1="623.59" y1="324.304" x2="706.715" y2="452.189" gradientUnits="userSpaceOnUse">
<stop offset="0.192708" stop-color="#713BDB"/>
<stop offset="0.572917" stop-color="#713BDB"/>
<stop offset="0.59375" stop-color="#713BDB"/>
<stop offset="1" stop-color="#F2522E"/>
</linearGradient>
<linearGradient id="paint15_linear" x1="582.808" y1="428.238" x2="659.537" y2="525.753" gradientUnits="userSpaceOnUse">
<stop offset="0.192708" stop-color="#713BDB"/>
<stop offset="0.572917" stop-color="#713BDB"/>
<stop offset="0.59375" stop-color="#713BDB"/>
<stop offset="1" stop-color="#F2522E"/>
</linearGradient>
<linearGradient id="paint16_linear" x1="512.359" y1="466.584" x2="570.263" y2="567.087" gradientUnits="userSpaceOnUse">
<stop offset="0.192708" stop-color="#713BDB"/>
<stop offset="0.572917" stop-color="#713BDB"/>
<stop offset="0.59375" stop-color="#713BDB"/>
<stop offset="1" stop-color="#F2522E"/>
</linearGradient>
<linearGradient id="paint17_linear" x1="476.909" y1="284.395" x2="524.886" y2="360.588" gradientUnits="userSpaceOnUse">
<stop offset="0.192708" stop-color="#713BDB"/>
<stop offset="0.572917" stop-color="#713BDB"/>
<stop offset="0.59375" stop-color="#713BDB"/>
<stop offset="1" stop-color="#F2522E"/>
</linearGradient>
<linearGradient id="paint18_linear" x1="439.623" y1="219.236" x2="496.356" y2="299.036" gradientUnits="userSpaceOnUse">
<stop offset="0.192708" stop-color="#713BDB"/>
<stop offset="0.572917" stop-color="#713BDB"/>
<stop offset="0.59375" stop-color="#713BDB"/>
<stop offset="1" stop-color="#F2522E"/>
</linearGradient>
<linearGradient id="paint19_linear" x1="431.454" y1="359.55" x2="496.037" y2="463.639" gradientUnits="userSpaceOnUse">
<stop offset="0.192708" stop-color="#713BDB"/>
<stop offset="0.572917" stop-color="#713BDB"/>
<stop offset="0.59375" stop-color="#713BDB"/>
<stop offset="1" stop-color="#F2522E"/>
</linearGradient>
<linearGradient id="paint20_linear" x1="376.908" y1="449.736" x2="436.507" y2="541.426" gradientUnits="userSpaceOnUse">
<stop offset="0.192708" stop-color="#713BDB"/>
<stop offset="0.572917" stop-color="#713BDB"/>
<stop offset="0.59375" stop-color="#713BDB"/>
<stop offset="1" stop-color="#F2522E"/>
</linearGradient>
<linearGradient id="paint21_linear" x1="319.318" y1="404.059" x2="385.822" y2="503.937" gradientUnits="userSpaceOnUse">
<stop offset="0.192708" stop-color="#713BDB"/>
<stop offset="0.572917" stop-color="#713BDB"/>
<stop offset="0.59375" stop-color="#713BDB"/>
<stop offset="1" stop-color="#F2522E"/>
</linearGradient>
<linearGradient id="paint22_linear" x1="251.884" y1="460.643" x2="321.525" y2="565.348" gradientUnits="userSpaceOnUse">
<stop offset="0.192708" stop-color="#713BDB"/>
<stop offset="0.572917" stop-color="#713BDB"/>
<stop offset="0.59375" stop-color="#713BDB"/>
<stop offset="1" stop-color="#F2522E"/>
</linearGradient>
<linearGradient id="paint23_linear" x1="123.81" y1="460.892" x2="173.998" y2="538.105" gradientUnits="userSpaceOnUse">
<stop offset="0.192708" stop-color="#713BDB"/>
<stop offset="0.572917" stop-color="#713BDB"/>
<stop offset="0.59375" stop-color="#713BDB"/>
<stop offset="1" stop-color="#F2522E"/>
</linearGradient>
<linearGradient id="paint24_linear" x1="192.119" y1="384.454" x2="242.308" y2="461.667" gradientUnits="userSpaceOnUse">
<stop offset="0.192708" stop-color="#713BDB"/>
<stop offset="0.572917" stop-color="#713BDB"/>
<stop offset="0.59375" stop-color="#713BDB"/>
<stop offset="1" stop-color="#F2522E"/>
</linearGradient>
<linearGradient id="paint25_linear" x1="60.5352" y1="463.681" x2="103.51" y2="527.348" gradientUnits="userSpaceOnUse">
<stop offset="0.192708" stop-color="#713BDB"/>
<stop offset="0.572917" stop-color="#713BDB"/>
<stop offset="0.59375" stop-color="#713BDB"/>
<stop offset="1" stop-color="#F2522E"/>
</linearGradient>
</defs>
</svg>
