<svg width="371" height="512" viewBox="0 0 371 512" fill="none" xmlns="http://www.w3.org/2000/svg">
<path fill-rule="evenodd" clip-rule="evenodd" d="M0 185.426C0 83.182 83.182 0 185.427 0C287.671 0 370.852 83.182 370.854 185.426C370.854 312.314 204.915 498.593 197.85 506.461C191.226 513.839 179.64 513.852 173.004 506.461C165.939 498.593 0 312.314 0 185.426ZM257.252 199.641C258.423 201.916 258.322 204.643 256.986 206.827C255.65 209.015 253.273 210.351 250.708 210.351H228.652V225.06C228.628 245.353 212.182 261.799 191.886 261.823H177.18C156.887 261.799 140.441 245.353 140.414 225.06V210.351H118.357C115.792 210.355 113.413 209.022 112.076 206.834C110.74 204.646 110.643 201.92 111.814 199.641L147.806 129.653C147.805 129.638 147.802 129.623 147.799 129.609C147.796 129.595 147.791 129.581 147.787 129.567C147.778 129.536 147.769 129.505 147.769 129.472V100.057C147.785 93.8198 150.458 87.8823 155.12 83.7355V78H213.946V83.7355C218.608 87.8823 221.28 93.8198 221.297 100.057V129.472C221.297 129.504 221.288 129.533 221.279 129.562C221.269 129.592 221.26 129.621 221.26 129.653L257.252 199.641ZM198.429 320.646V291.234C198.429 287.175 195.137 283.883 191.078 283.883C187.015 283.883 183.723 287.175 183.723 291.234V320.646C183.723 324.708 187.015 328 191.078 328C195.137 328 198.429 324.708 198.429 320.646ZM138.623 308.562C137.307 310.841 134.877 312.244 132.245 312.237C129.62 312.237 127.193 310.834 125.883 308.558C124.571 306.283 124.571 303.483 125.883 301.207L140.589 275.741C142.619 272.223 147.119 271.015 150.636 273.048C154.154 275.078 155.359 279.575 153.329 283.092L138.623 308.562ZM231.519 273.048C229.83 274.021 228.594 275.626 228.089 277.511C227.584 279.396 227.85 281.402 228.826 283.092L243.532 308.562C245.562 312.079 250.059 313.284 253.576 311.255C257.093 309.225 258.298 304.725 256.269 301.207L241.563 275.741C240.59 274.048 238.985 272.816 237.1 272.311C235.215 271.803 233.206 272.069 231.519 273.048Z" fill="#00A692"/>
<path fill-rule="evenodd" clip-rule="evenodd" d="M0 185.426C0 83.182 83.182 0 185.427 0C287.671 0 370.852 83.182 370.854 185.426C370.854 312.314 204.915 498.593 197.85 506.461C191.226 513.839 179.64 513.852 173.004 506.461C165.939 498.593 0 312.314 0 185.426ZM257.252 199.641C258.423 201.916 258.322 204.643 256.986 206.827C255.65 209.015 253.273 210.351 250.708 210.351H228.652V225.06C228.628 245.353 212.182 261.799 191.886 261.823H177.18C156.887 261.799 140.441 245.353 140.414 225.06V210.351H118.357C115.792 210.355 113.413 209.022 112.076 206.834C110.74 204.646 110.643 201.92 111.814 199.641L147.806 129.653C147.805 129.638 147.802 129.623 147.799 129.609C147.796 129.595 147.791 129.581 147.787 129.567C147.778 129.536 147.769 129.505 147.769 129.472V100.057C147.785 93.8198 150.458 87.8823 155.12 83.7355V78H213.946V83.7355C218.608 87.8823 221.28 93.8198 221.297 100.057V129.472C221.297 129.504 221.288 129.533 221.279 129.562C221.269 129.592 221.26 129.621 221.26 129.653L257.252 199.641ZM198.429 320.646V291.234C198.429 287.175 195.137 283.883 191.078 283.883C187.015 283.883 183.723 287.175 183.723 291.234V320.646C183.723 324.708 187.015 328 191.078 328C195.137 328 198.429 324.708 198.429 320.646ZM138.623 308.562C137.307 310.841 134.877 312.244 132.245 312.237C129.62 312.237 127.193 310.834 125.883 308.558C124.571 306.283 124.571 303.483 125.883 301.207L140.589 275.741C142.619 272.223 147.119 271.015 150.636 273.048C154.154 275.078 155.359 279.575 153.329 283.092L138.623 308.562ZM231.519 273.048C229.83 274.021 228.594 275.626 228.089 277.511C227.584 279.396 227.85 281.402 228.826 283.092L243.532 308.562C245.562 312.079 250.059 313.284 253.576 311.255C257.093 309.225 258.298 304.725 256.269 301.207L241.563 275.741C240.59 274.048 238.985 272.816 237.1 272.311C235.215 271.803 233.206 272.069 231.519 273.048Z" fill="#00A692"/>
<path fill-rule="evenodd" clip-rule="evenodd" d="M0 185.426C0 83.182 83.182 0 185.427 0C287.671 0 370.852 83.182 370.854 185.426C370.854 312.314 204.915 498.593 197.85 506.461C191.226 513.839 179.64 513.852 173.004 506.461C165.939 498.593 0 312.314 0 185.426ZM257.252 199.641C258.423 201.916 258.322 204.643 256.986 206.827C255.65 209.015 253.273 210.351 250.708 210.351H228.652V225.06C228.628 245.353 212.182 261.799 191.886 261.823H177.18C156.887 261.799 140.441 245.353 140.414 225.06V210.351H118.357C115.792 210.355 113.413 209.022 112.076 206.834C110.74 204.646 110.643 201.92 111.814 199.641L147.806 129.653C147.805 129.638 147.802 129.623 147.799 129.609C147.796 129.595 147.791 129.581 147.787 129.567C147.778 129.536 147.769 129.505 147.769 129.472V100.057C147.785 93.8198 150.458 87.8823 155.12 83.7355V78H213.946V83.7355C218.608 87.8823 221.28 93.8198 221.297 100.057V129.472C221.297 129.504 221.288 129.533 221.279 129.562C221.269 129.592 221.26 129.621 221.26 129.653L257.252 199.641ZM198.429 320.646V291.234C198.429 287.175 195.137 283.883 191.078 283.883C187.015 283.883 183.723 287.175 183.723 291.234V320.646C183.723 324.708 187.015 328 191.078 328C195.137 328 198.429 324.708 198.429 320.646ZM138.623 308.562C137.307 310.841 134.877 312.244 132.245 312.237C129.62 312.237 127.193 310.834 125.883 308.558C124.571 306.283 124.571 303.483 125.883 301.207L140.589 275.741C142.619 272.223 147.119 271.015 150.636 273.048C154.154 275.078 155.359 279.575 153.329 283.092L138.623 308.562ZM231.519 273.048C229.83 274.021 228.594 275.626 228.089 277.511C227.584 279.396 227.85 281.402 228.826 283.092L243.532 308.562C245.562 312.079 250.059 313.284 253.576 311.255C257.093 309.225 258.298 304.725 256.269 301.207L241.563 275.741C240.59 274.048 238.985 272.816 237.1 272.311C235.215 271.803 233.206 272.069 231.519 273.048Z" fill="#00A692"/>
</svg>
