<svg width="624" height="908" viewBox="0 0 624 908" fill="none" xmlns="http://www.w3.org/2000/svg">
<path d="M476.613 103.541C485.089 139.878 521.418 162.464 557.756 153.988C594.094 145.511 616.68 109.182 608.203 72.8448L606.559 65.7952C598.082 29.4575 561.753 6.8715 525.416 15.3479C489.078 23.8243 466.492 60.1533 474.969 96.491L476.613 103.541Z" fill="url(#paint0_linear)" fill-opacity="0.5"/>
<path d="M368.481 149.825C376.503 184.216 410.886 205.592 445.277 197.569C479.668 189.547 501.044 155.164 493.021 120.774C484.999 86.3827 450.617 65.0066 416.226 73.0289C381.835 81.0512 360.459 115.434 368.481 149.825Z" fill="url(#paint1_linear)" fill-opacity="0.5"/>
<path d="M421.304 270.059C427.056 294.717 451.708 310.043 476.366 304.291C501.023 298.54 516.35 273.888 510.598 249.23L506.213 230.431C500.461 205.774 475.809 190.448 451.151 196.199C426.494 201.951 411.167 226.603 416.919 251.261L421.304 270.059Z" fill="url(#paint2_linear)" fill-opacity="0.5"/>
<path d="M419.653 374.508L431.402 371.768C456.709 365.864 472.439 340.564 466.535 315.257L466.535 315.257C460.632 289.951 435.332 274.221 410.025 280.124L398.276 282.865C372.969 288.768 357.24 314.069 363.143 339.375L363.143 339.375C369.046 364.682 394.347 380.412 419.653 374.508Z" fill="url(#paint3_linear)" fill-opacity="0.5"/>
<path d="M258.155 186.711L258.155 186.711C278.919 181.867 291.826 161.108 286.982 140.344L285.338 133.294C280.494 112.53 259.734 99.6233 238.97 104.467L238.97 104.467C218.206 109.311 205.299 130.07 210.143 150.834L211.787 157.884C216.631 178.648 237.39 191.555 258.155 186.711Z" fill="url(#paint4_linear)" fill-opacity="0.5"/>
<path d="M300.496 318.063L306.502 316.662C333.395 310.389 350.11 283.503 343.837 256.611L343.532 255.304C337.259 228.412 310.373 211.697 283.481 217.97L277.474 219.371C250.582 225.644 233.867 252.53 240.14 279.422L240.444 280.729C246.718 307.621 273.603 324.336 300.496 318.063Z" fill="url(#paint5_linear)" fill-opacity="0.5"/>
<path d="M250.311 386.756C256.063 411.414 280.714 426.74 305.372 420.988C330.03 415.237 345.356 390.585 339.604 365.927C333.852 341.269 309.201 325.943 284.543 331.695C259.885 337.447 244.559 362.099 250.311 386.756Z" fill="url(#paint6_linear)" fill-opacity="0.5"/>
<path d="M229.475 408.961L229.476 408.961C256.08 402.755 272.616 376.157 266.41 349.553L265.862 347.203C259.656 320.599 233.058 304.063 206.454 310.269L206.454 310.269C179.849 316.475 163.313 343.073 169.519 369.677L170.067 372.026C176.273 398.631 202.871 415.167 229.475 408.961Z" fill="url(#paint7_linear)" fill-opacity="0.5"/>
<path d="M187.302 498.336L190.959 497.483C217.851 491.209 234.566 464.324 228.293 437.431L226.892 431.425C220.619 404.532 193.733 387.817 166.841 394.09L163.184 394.943C136.292 401.216 119.577 428.102 125.85 454.995L127.251 461.001C133.524 487.894 160.41 504.609 187.302 498.336Z" fill="url(#paint8_linear)" fill-opacity="0.5"/>
<path d="M94.9804 549.353L94.9805 549.353C115.745 544.51 128.651 523.75 123.808 502.986L123.808 502.986C118.964 482.221 98.2044 469.315 77.4401 474.159L77.44 474.159C56.6756 479.002 43.7693 499.762 48.6129 520.526L48.613 520.526C53.4566 541.291 74.216 554.197 94.9804 549.353Z" fill="url(#paint9_linear)" fill-opacity="0.5"/>
<path d="M320.736 226.622L323.086 226.074C343.202 221.382 355.705 201.271 351.012 181.155C346.32 161.04 326.209 148.537 306.094 153.229L303.744 153.777C283.628 158.47 271.125 178.58 275.818 198.696C280.51 218.811 300.621 231.314 320.736 226.622Z" fill="url(#paint10_linear)" fill-opacity="0.5"/>
<path d="M118.797 449.645L118.797 449.645C139.561 444.801 152.467 424.042 147.624 403.277L147.624 403.277C142.78 382.513 122.021 369.607 101.256 374.45L101.256 374.45C80.4918 379.294 67.5856 400.053 72.4292 420.818L72.4292 420.818C77.2729 441.582 98.0323 454.489 118.797 449.645Z" fill="url(#paint11_linear)" fill-opacity="0.5"/>
<path d="M9.99539 556.79C13.9309 573.661 30.7979 584.147 47.669 580.212C64.5401 576.276 75.0265 559.409 71.091 542.538L70.5429 540.188C66.6074 523.317 49.7403 512.831 32.8692 516.766C15.9982 520.702 5.51178 537.569 9.44726 554.44L9.99539 556.79Z" fill="url(#paint12_linear)" fill-opacity="0.5"/>
<path d="M474.291 126.575C482.768 162.913 519.096 185.499 555.434 177.023C591.772 168.546 614.358 132.217 605.881 95.8794L604.237 88.8299C595.761 52.4922 559.432 29.9062 523.094 38.3826C486.756 46.859 464.17 83.1879 472.647 119.526L474.291 126.575Z" fill="url(#paint13_linear)" fill-opacity="0.1"/>
<path d="M366.159 172.86C374.181 207.251 408.564 228.627 442.955 220.604C477.346 212.582 498.722 178.199 490.7 143.808C482.677 109.418 448.295 88.0415 413.904 96.0638C379.513 104.086 358.137 138.469 366.159 172.86Z" fill="url(#paint14_linear)" fill-opacity="0.1"/>
<path d="M418.983 293.095C424.735 317.752 449.387 333.079 474.044 327.327C498.702 321.575 514.028 296.923 508.277 272.265L503.891 253.467C498.14 228.809 473.488 213.483 448.83 219.235C424.172 224.987 408.846 249.638 414.598 274.296L418.983 293.095Z" fill="url(#paint15_linear)" fill-opacity="0.1"/>
<path d="M417.331 397.543L429.08 394.802C454.387 388.899 470.116 363.599 464.213 338.292L464.213 338.292C458.31 312.985 433.009 297.256 407.703 303.159L395.954 305.9C370.647 311.803 354.918 337.103 360.821 362.41L360.821 362.41C366.724 387.717 392.025 403.446 417.331 397.543Z" fill="url(#paint16_linear)" fill-opacity="0.1"/>
<path d="M318.414 249.656L320.764 249.108C340.88 244.416 353.383 224.305 348.69 204.19C343.998 184.074 323.887 171.571 303.772 176.264L301.422 176.812C281.306 181.504 268.803 201.615 273.496 221.73C278.188 241.846 298.299 254.349 318.414 249.656Z" fill="url(#paint17_linear)" fill-opacity="0.1"/>
<path d="M255.833 209.745L255.833 209.745C276.597 204.902 289.504 184.142 284.66 163.378L283.016 156.328C278.172 135.564 257.413 122.658 236.648 127.501L236.648 127.501C215.884 132.345 202.977 153.105 207.821 173.869L209.465 180.918C214.309 201.683 235.069 214.589 255.833 209.745Z" fill="url(#paint18_linear)" fill-opacity="0.1"/>
<path d="M298.174 341.098L304.181 339.697C331.073 333.424 347.788 306.538 341.515 279.645L341.21 278.339C334.937 251.446 308.051 234.731 281.159 241.004L275.152 242.405C248.26 248.679 231.545 275.564 237.818 302.457L238.123 303.764C244.396 330.656 271.282 347.371 298.174 341.098Z" fill="url(#paint19_linear)" fill-opacity="0.1"/>
<path d="M247.989 409.792C253.741 434.449 278.393 449.775 303.051 444.024C327.708 438.272 343.035 413.62 337.283 388.962C331.531 364.305 306.879 348.978 282.221 354.73C257.564 360.482 242.238 385.134 247.989 409.792Z" fill="url(#paint20_linear)" fill-opacity="0.1"/>
<path d="M227.153 431.996L227.153 431.996C253.757 425.79 270.293 399.192 264.087 372.588L263.539 370.238C257.333 343.634 230.735 327.098 204.131 333.304L204.131 333.304C177.527 339.51 160.99 366.108 167.196 392.712L167.744 395.062C173.95 421.666 200.548 438.202 227.153 431.996Z" fill="url(#paint21_linear)" fill-opacity="0.1"/>
<path d="M190.5 514.791L194.157 513.938C221.049 507.665 237.764 480.779 231.491 453.886L230.09 447.88C223.817 420.987 196.931 404.272 170.039 410.545L166.382 411.398C139.489 417.672 122.774 444.557 129.047 471.45L130.449 477.456C136.722 504.349 163.607 521.064 190.5 514.791Z" fill="url(#paint22_linear)" fill-opacity="0.1"/>
<path d="M92.6586 572.388L92.6587 572.388C113.423 567.544 126.329 546.785 121.486 526.021L121.486 526.02C116.642 505.256 95.8827 492.35 75.1183 497.193L75.1182 497.193C54.3538 502.037 41.4475 522.797 46.2912 543.561L46.2912 543.561C51.1348 564.325 71.8942 577.232 92.6586 572.388Z" fill="url(#paint23_linear)" fill-opacity="0.1"/>
<path d="M116.475 472.68L116.475 472.68C137.24 467.837 150.146 447.077 145.302 426.313L145.302 426.313C140.459 405.548 119.699 392.642 98.9349 397.486L98.9348 397.486C78.1705 402.329 65.2641 423.089 70.1078 443.853L70.1078 443.853C74.9515 464.618 95.7109 477.524 116.475 472.68Z" fill="url(#paint24_linear)" fill-opacity="0.1"/>
<path d="M7.67398 579.824C11.6095 596.695 28.4765 607.181 45.3476 603.246C62.2187 599.31 72.7051 582.443 68.7696 565.572L68.2214 563.222C64.286 546.351 47.4189 535.865 30.5478 539.8C13.6767 543.736 3.19036 560.603 7.12584 577.474L7.67398 579.824Z" fill="url(#paint25_linear)" fill-opacity="0.1"/>
<path d="M163.107 795.099C151.873 759.517 113.922 739.778 78.3396 751.012C42.7576 762.246 23.0195 800.198 34.2534 835.78L36.4327 842.683C47.6665 878.265 85.6183 898.003 121.2 886.769C156.782 875.535 176.52 837.584 165.286 802.002L163.107 795.099Z" fill="url(#paint26_linear)" fill-opacity="0.5"/>
<path d="M267.378 740.67C256.746 706.995 220.827 688.314 187.152 698.946C153.476 709.578 134.795 745.496 145.427 779.172C156.059 812.848 191.978 831.529 225.653 820.897C259.329 810.265 278.01 774.346 267.378 740.67Z" fill="url(#paint27_linear)" fill-opacity="0.5"/>
<path d="M205.503 624.834C197.88 600.689 172.127 587.295 147.982 594.918C123.838 602.541 110.444 628.294 118.067 652.439L123.878 670.846C131.501 694.991 157.254 708.385 181.399 700.762C205.544 693.139 218.938 667.386 211.315 643.241L205.503 624.834Z" fill="url(#paint28_linear)" fill-opacity="0.5"/>
<path d="M199.152 520.565L187.648 524.197C162.867 532.021 149.121 558.451 156.945 583.232L156.945 583.232C164.768 608.012 191.199 621.758 215.979 613.935L227.484 610.302C252.264 602.479 266.01 576.048 258.187 551.268L258.187 551.268C250.363 526.488 223.933 512.741 199.152 520.565Z" fill="url(#paint29_linear)" fill-opacity="0.5"/>
<path d="M374.556 695.445L374.556 695.445C354.223 701.864 342.944 723.551 349.363 743.884L351.543 750.787C357.962 771.119 379.649 782.398 399.981 775.979L399.981 775.979C420.314 769.559 431.593 747.873 425.174 727.54L422.994 720.637C416.575 700.305 394.888 689.026 374.556 695.445Z" fill="url(#paint30_linear)" fill-opacity="0.5"/>
<path d="M322.282 567.721L316.4 569.578C290.067 577.892 275.459 605.978 283.773 632.311L284.177 633.591C292.491 659.924 320.578 674.532 346.911 666.218L352.793 664.361C379.126 656.047 393.733 627.96 385.419 601.627L385.015 600.348C376.702 574.015 348.615 559.407 322.282 567.721Z" fill="url(#paint31_linear)" fill-opacity="0.5"/>
<path d="M367.06 495.387C359.437 471.242 333.684 457.848 309.539 465.471C285.394 473.094 272 498.847 279.623 522.992C287.246 547.137 312.999 560.53 337.144 552.908C361.289 545.285 374.683 519.532 367.06 495.387Z" fill="url(#paint32_linear)" fill-opacity="0.5"/>
<path d="M386.134 471.652L386.134 471.652C360.082 479.876 345.631 507.662 353.856 533.713L354.582 536.014C362.807 562.065 390.593 576.516 416.644 568.292L416.644 568.292C442.696 560.067 457.147 532.281 448.922 506.23L448.196 503.929C439.971 477.878 412.185 463.427 386.134 471.652Z" fill="url(#paint33_linear)" fill-opacity="0.5"/>
<path d="M421.34 379.311L417.759 380.441C391.426 388.755 376.819 416.842 385.133 443.175L386.99 449.056C395.303 475.389 423.39 489.997 449.723 481.683L453.304 480.553C479.637 472.239 494.244 444.152 485.931 417.819L484.074 411.937C475.76 385.604 447.673 370.997 421.34 379.311Z" fill="url(#paint34_linear)" fill-opacity="0.5"/>
<path d="M509.484 321.373L509.484 321.373C489.152 327.793 477.873 349.479 484.292 369.812L484.292 369.812C490.712 390.145 512.398 401.424 532.731 395.004L532.731 395.004C553.063 388.585 564.342 366.898 557.923 346.566L557.923 346.566C551.504 326.233 529.817 314.954 509.484 321.373Z" fill="url(#paint35_linear)" fill-opacity="0.5"/>
<path d="M309.102 660.443L306.801 661.17C287.104 667.389 276.177 688.398 282.396 708.095C288.615 727.792 309.624 738.718 329.321 732.5L331.622 731.773C351.319 725.554 362.246 704.545 356.027 684.848C349.808 665.151 328.799 654.225 309.102 660.443Z" fill="url(#paint36_linear)" fill-opacity="0.5"/>
<path d="M493.373 422.613L493.372 422.613C473.04 429.032 461.761 450.719 468.18 471.052L468.18 471.052C474.6 491.384 496.286 502.663 516.619 496.244L516.619 496.244C536.952 489.824 548.231 468.138 541.811 447.805L541.811 447.805C535.392 427.473 513.705 416.194 493.373 422.613Z" fill="url(#paint37_linear)" fill-opacity="0.5"/>
<path d="M593.651 307.452C588.435 290.932 570.814 281.768 554.294 286.983C537.774 292.199 528.61 309.819 533.826 326.34L534.552 328.641C539.768 345.161 557.388 354.325 573.908 349.109C590.429 343.894 599.593 326.273 594.377 309.753L593.651 307.452Z" fill="url(#paint38_linear)" fill-opacity="0.5"/>
<path d="M163.658 771.954C152.425 736.372 114.473 716.634 78.891 727.868C43.309 739.101 23.5709 777.053 34.8047 812.635L36.9841 819.538C48.2179 855.12 86.1696 874.858 121.752 863.624C157.334 852.391 177.072 814.439 165.838 778.857L163.658 771.954Z" fill="url(#paint39_linear)" fill-opacity="0.1"/>
<path d="M267.929 717.526C257.297 683.85 221.379 665.169 187.703 675.801C154.027 686.433 135.347 722.352 145.979 756.027C156.611 789.703 192.529 808.384 226.205 797.752C259.88 787.12 278.561 751.201 267.929 717.526Z" fill="url(#paint40_linear)" fill-opacity="0.1"/>
<path d="M206.054 601.688C198.431 577.543 172.678 564.15 148.533 571.773C124.388 579.395 110.995 605.148 118.618 629.293L124.429 647.701C132.052 671.846 157.805 685.24 181.95 677.617C206.095 669.994 219.489 644.241 211.866 620.096L206.054 601.688Z" fill="url(#paint41_linear)" fill-opacity="0.1"/>
<path d="M199.703 497.42L188.199 501.052C163.419 508.876 149.672 535.307 157.496 560.087L157.496 560.087C165.319 584.867 191.75 598.613 216.53 590.79L228.035 587.158C252.815 579.334 266.562 552.904 258.738 528.123L258.738 528.123C250.914 503.343 224.484 489.597 199.703 497.42Z" fill="url(#paint42_linear)" fill-opacity="0.1"/>
<path d="M309.654 637.299L307.353 638.025C287.655 644.244 276.729 665.253 282.948 684.95C289.166 704.647 310.175 715.574 329.873 709.355L332.174 708.628C351.871 702.41 362.797 681.401 356.578 661.704C350.36 642.006 329.351 631.08 309.654 637.299Z" fill="url(#paint43_linear)" fill-opacity="0.1"/>
<path d="M375.107 672.3L375.107 672.3C354.774 678.72 343.496 700.407 349.915 720.739L352.094 727.642C358.514 747.975 380.2 759.253 400.533 752.834L400.533 752.834C420.865 746.415 432.144 724.728 425.725 704.396L423.546 697.493C417.126 677.16 395.44 665.881 375.107 672.3Z" fill="url(#paint44_linear)" fill-opacity="0.1"/>
<path d="M322.833 544.576L316.951 546.433C290.618 554.747 276.011 582.834 284.325 609.167L284.729 610.446C293.042 636.779 321.129 651.387 347.462 643.073L353.344 641.216C379.677 632.902 394.285 604.816 385.971 578.483L385.567 577.203C377.253 550.87 349.166 536.262 322.833 544.576Z" fill="url(#paint45_linear)" fill-opacity="0.1"/>
<path d="M367.611 472.241C359.988 448.096 334.235 434.703 310.09 442.325C285.945 449.948 272.551 475.701 280.174 499.846C287.797 523.991 313.55 537.385 337.695 529.762C361.84 522.139 375.233 496.386 367.611 472.241Z" fill="url(#paint46_linear)" fill-opacity="0.1"/>
<path d="M386.686 448.506L386.686 448.506C360.635 456.731 346.184 484.517 354.408 510.568L355.135 512.869C363.359 538.92 391.146 553.371 417.197 545.146L417.197 545.146C443.248 536.922 457.699 509.136 449.474 483.084L448.748 480.784C440.523 454.733 412.737 440.282 386.686 448.506Z" fill="url(#paint47_linear)" fill-opacity="0.1"/>
<path d="M416.892 363.148L413.311 364.279C386.978 372.593 372.37 400.68 380.684 427.013L382.541 432.894C390.855 459.227 418.942 473.835 445.275 465.521L448.856 464.391C475.189 456.077 489.796 427.99 481.482 401.657L479.625 395.775C471.312 369.442 443.225 354.835 416.892 363.148Z" fill="url(#paint48_linear)" fill-opacity="0.1"/>
<path d="M510.036 298.228L510.036 298.228C489.703 304.648 478.424 326.334 484.843 346.667L484.843 346.667C491.263 367 512.949 378.279 533.282 371.859L533.282 371.859C553.615 365.44 564.894 343.753 558.474 323.421L558.474 323.421C552.055 303.088 530.368 291.809 510.036 298.228Z" fill="url(#paint49_linear)" fill-opacity="0.1"/>
<path d="M493.923 399.467L493.923 399.467C473.591 405.887 462.312 427.573 468.731 447.906L468.731 447.906C475.15 468.238 496.837 479.517 517.17 473.098L517.17 473.098C537.502 466.679 548.781 444.992 542.362 424.659L542.362 424.659C535.943 404.327 514.256 393.048 493.923 399.467Z" fill="url(#paint50_linear)" fill-opacity="0.1"/>
<path d="M594.202 284.307C588.986 267.787 571.365 258.623 554.845 263.839C538.325 269.054 529.161 286.675 534.376 303.195L535.103 305.496C540.319 322.016 557.939 331.18 574.459 325.965C590.98 320.749 600.144 303.129 594.928 286.608L594.202 284.307Z" fill="url(#paint51_linear)" fill-opacity="0.1"/>
<defs>
<linearGradient id="paint0_linear" x1="623.551" y1="138.64" x2="500.295" y2="25.8338" gradientUnits="userSpaceOnUse">
<stop offset="0.09375" stop-color="#713BDB"/>
<stop offset="0.192708" stop-color="#713BDB"/>
<stop offset="1" stop-color="#F2522E"/>
</linearGradient>
<linearGradient id="paint1_linear" x1="507.547" y1="183.044" x2="397.544" y2="77.3858" gradientUnits="userSpaceOnUse">
<stop offset="0.09375" stop-color="#713BDB"/>
<stop offset="0.192708" stop-color="#713BDB"/>
<stop offset="1" stop-color="#F2522E"/>
</linearGradient>
<linearGradient id="paint2_linear" x1="521.013" y1="293.877" x2="424.136" y2="216.341" gradientUnits="userSpaceOnUse">
<stop offset="0.09375" stop-color="#713BDB"/>
<stop offset="0.192708" stop-color="#713BDB"/>
<stop offset="1" stop-color="#F2522E"/>
</linearGradient>
<linearGradient id="paint3_linear" x1="477.224" y1="361.079" x2="398.003" y2="276.359" gradientUnits="userSpaceOnUse">
<stop offset="0.09375" stop-color="#713BDB"/>
<stop offset="0.192708" stop-color="#713BDB"/>
<stop offset="1" stop-color="#F2522E"/>
</linearGradient>
<linearGradient id="paint4_linear" x1="295.752" y1="177.941" x2="222.374" y2="113.115" gradientUnits="userSpaceOnUse">
<stop offset="0.09375" stop-color="#713BDB"/>
<stop offset="0.192708" stop-color="#713BDB"/>
<stop offset="1" stop-color="#F2522E"/>
</linearGradient>
<linearGradient id="paint5_linear" x1="355.195" y1="305.304" x2="268.655" y2="218.607" gradientUnits="userSpaceOnUse">
<stop offset="0.09375" stop-color="#713BDB"/>
<stop offset="0.192708" stop-color="#713BDB"/>
<stop offset="1" stop-color="#F2522E"/>
</linearGradient>
<linearGradient id="paint6_linear" x1="350.019" y1="410.574" x2="271.149" y2="334.819" gradientUnits="userSpaceOnUse">
<stop offset="0.09375" stop-color="#713BDB"/>
<stop offset="0.192708" stop-color="#713BDB"/>
<stop offset="1" stop-color="#F2522E"/>
</linearGradient>
<linearGradient id="paint7_linear" x1="277.647" y1="397.724" x2="190.193" y2="315.566" gradientUnits="userSpaceOnUse">
<stop offset="0.09375" stop-color="#713BDB"/>
<stop offset="0.192708" stop-color="#713BDB"/>
<stop offset="1" stop-color="#F2522E"/>
</linearGradient>
<linearGradient id="paint8_linear" x1="239.652" y1="486.124" x2="148.046" y2="399.977" gradientUnits="userSpaceOnUse">
<stop offset="0.09375" stop-color="#713BDB"/>
<stop offset="0.192708" stop-color="#713BDB"/>
<stop offset="1" stop-color="#F2522E"/>
</linearGradient>
<linearGradient id="paint9_linear" x1="132.578" y1="540.583" x2="66.1615" y2="476.79" gradientUnits="userSpaceOnUse">
<stop offset="0.09375" stop-color="#713BDB"/>
<stop offset="0.192708" stop-color="#713BDB"/>
<stop offset="1" stop-color="#F2522E"/>
</linearGradient>
<linearGradient id="paint10_linear" x1="359.508" y1="217.578" x2="295.477" y2="154.277" gradientUnits="userSpaceOnUse">
<stop offset="0.09375" stop-color="#713BDB"/>
<stop offset="0.192708" stop-color="#713BDB"/>
<stop offset="1" stop-color="#F2522E"/>
</linearGradient>
<linearGradient id="paint11_linear" x1="156.394" y1="440.875" x2="89.9766" y2="377.081" gradientUnits="userSpaceOnUse">
<stop offset="0.09375" stop-color="#713BDB"/>
<stop offset="0.192708" stop-color="#713BDB"/>
<stop offset="1" stop-color="#F2522E"/>
</linearGradient>
<linearGradient id="paint12_linear" x1="78.2168" y1="573.086" x2="21.9031" y2="520.847" gradientUnits="userSpaceOnUse">
<stop offset="0.09375" stop-color="#713BDB"/>
<stop offset="0.192708" stop-color="#713BDB"/>
<stop offset="1" stop-color="#F2522E"/>
</linearGradient>
<linearGradient id="paint13_linear" x1="621.229" y1="161.675" x2="497.973" y2="48.8685" gradientUnits="userSpaceOnUse">
<stop offset="0.192708" stop-color="#713BDB"/>
<stop offset="0.572917" stop-color="#713BDB"/>
<stop offset="0.59375" stop-color="#713BDB"/>
<stop offset="1" stop-color="#F2522E"/>
</linearGradient>
<linearGradient id="paint14_linear" x1="505.225" y1="206.079" x2="395.222" y2="100.421" gradientUnits="userSpaceOnUse">
<stop offset="0.192708" stop-color="#713BDB"/>
<stop offset="0.572917" stop-color="#713BDB"/>
<stop offset="0.59375" stop-color="#713BDB"/>
<stop offset="1" stop-color="#F2522E"/>
</linearGradient>
<linearGradient id="paint15_linear" x1="518.691" y1="316.912" x2="421.816" y2="239.377" gradientUnits="userSpaceOnUse">
<stop offset="0.192708" stop-color="#713BDB"/>
<stop offset="0.572917" stop-color="#713BDB"/>
<stop offset="0.59375" stop-color="#713BDB"/>
<stop offset="1" stop-color="#F2522E"/>
</linearGradient>
<linearGradient id="paint16_linear" x1="474.902" y1="384.114" x2="395.681" y2="299.392" gradientUnits="userSpaceOnUse">
<stop offset="0.192708" stop-color="#713BDB"/>
<stop offset="0.572917" stop-color="#713BDB"/>
<stop offset="0.59375" stop-color="#713BDB"/>
<stop offset="1" stop-color="#F2522E"/>
</linearGradient>
<linearGradient id="paint17_linear" x1="357.187" y1="240.612" x2="293.155" y2="177.31" gradientUnits="userSpaceOnUse">
<stop offset="0.192708" stop-color="#713BDB"/>
<stop offset="0.572917" stop-color="#713BDB"/>
<stop offset="0.59375" stop-color="#713BDB"/>
<stop offset="1" stop-color="#F2522E"/>
</linearGradient>
<linearGradient id="paint18_linear" x1="293.43" y1="200.975" x2="220.052" y2="136.15" gradientUnits="userSpaceOnUse">
<stop offset="0.192708" stop-color="#713BDB"/>
<stop offset="0.572917" stop-color="#713BDB"/>
<stop offset="0.59375" stop-color="#713BDB"/>
<stop offset="1" stop-color="#F2522E"/>
</linearGradient>
<linearGradient id="paint19_linear" x1="352.873" y1="328.338" x2="266.333" y2="241.642" gradientUnits="userSpaceOnUse">
<stop offset="0.192708" stop-color="#713BDB"/>
<stop offset="0.572917" stop-color="#713BDB"/>
<stop offset="0.59375" stop-color="#713BDB"/>
<stop offset="1" stop-color="#F2522E"/>
</linearGradient>
<linearGradient id="paint20_linear" x1="347.698" y1="433.609" x2="268.828" y2="357.855" gradientUnits="userSpaceOnUse">
<stop offset="0.192708" stop-color="#713BDB"/>
<stop offset="0.572917" stop-color="#713BDB"/>
<stop offset="0.59375" stop-color="#713BDB"/>
<stop offset="1" stop-color="#F2522E"/>
</linearGradient>
<linearGradient id="paint21_linear" x1="275.324" y1="420.759" x2="187.87" y2="338.6" gradientUnits="userSpaceOnUse">
<stop offset="0.192708" stop-color="#713BDB"/>
<stop offset="0.572917" stop-color="#713BDB"/>
<stop offset="0.59375" stop-color="#713BDB"/>
<stop offset="1" stop-color="#F2522E"/>
</linearGradient>
<linearGradient id="paint22_linear" x1="242.849" y1="502.579" x2="151.243" y2="416.432" gradientUnits="userSpaceOnUse">
<stop offset="0.192708" stop-color="#713BDB"/>
<stop offset="0.572917" stop-color="#713BDB"/>
<stop offset="0.59375" stop-color="#713BDB"/>
<stop offset="1" stop-color="#F2522E"/>
</linearGradient>
<linearGradient id="paint23_linear" x1="130.256" y1="563.618" x2="63.8398" y2="499.825" gradientUnits="userSpaceOnUse">
<stop offset="0.192708" stop-color="#713BDB"/>
<stop offset="0.572917" stop-color="#713BDB"/>
<stop offset="0.59375" stop-color="#713BDB"/>
<stop offset="1" stop-color="#F2522E"/>
</linearGradient>
<linearGradient id="paint24_linear" x1="154.073" y1="463.91" x2="87.6554" y2="400.117" gradientUnits="userSpaceOnUse">
<stop offset="0.192708" stop-color="#713BDB"/>
<stop offset="0.572917" stop-color="#713BDB"/>
<stop offset="0.59375" stop-color="#713BDB"/>
<stop offset="1" stop-color="#F2522E"/>
</linearGradient>
<linearGradient id="paint25_linear" x1="75.8954" y1="596.12" x2="19.581" y2="543.88" gradientUnits="userSpaceOnUse">
<stop offset="0.192708" stop-color="#713BDB"/>
<stop offset="0.572917" stop-color="#713BDB"/>
<stop offset="0.59375" stop-color="#713BDB"/>
<stop offset="1" stop-color="#F2522E"/>
</linearGradient>
<linearGradient id="paint26_linear" x1="13.9127" y1="771.353" x2="145.445" y2="874.39" gradientUnits="userSpaceOnUse">
<stop offset="0.09375" stop-color="#713BDB"/>
<stop offset="0.192708" stop-color="#713BDB"/>
<stop offset="1" stop-color="#F2522E"/>
</linearGradient>
<linearGradient id="paint27_linear" x1="126.176" y1="718.197" x2="243.947" y2="815.122" gradientUnits="userSpaceOnUse">
<stop offset="0.09375" stop-color="#713BDB"/>
<stop offset="0.192708" stop-color="#713BDB"/>
<stop offset="1" stop-color="#F2522E"/>
</linearGradient>
<linearGradient id="paint28_linear" x1="104.264" y1="608.721" x2="206.793" y2="678.611" gradientUnits="userSpaceOnUse">
<stop offset="0.09375" stop-color="#713BDB"/>
<stop offset="0.192708" stop-color="#713BDB"/>
<stop offset="1" stop-color="#F2522E"/>
</linearGradient>
<linearGradient id="paint29_linear" x1="142.779" y1="538.363" x2="228.254" y2="616.769" gradientUnits="userSpaceOnUse">
<stop offset="0.09375" stop-color="#713BDB"/>
<stop offset="0.192708" stop-color="#713BDB"/>
<stop offset="1" stop-color="#F2522E"/>
</linearGradient>
<linearGradient id="paint30_linear" x1="337.74" y1="707.068" x2="415.866" y2="766.085" gradientUnits="userSpaceOnUse">
<stop offset="0.09375" stop-color="#713BDB"/>
<stop offset="0.192708" stop-color="#713BDB"/>
<stop offset="1" stop-color="#F2522E"/>
</linearGradient>
<linearGradient id="paint31_linear" x1="268.72" y1="584.631" x2="361.644" y2="664.447" gradientUnits="userSpaceOnUse">
<stop offset="0.09375" stop-color="#713BDB"/>
<stop offset="0.192708" stop-color="#713BDB"/>
<stop offset="1" stop-color="#F2522E"/>
</linearGradient>
<linearGradient id="paint32_linear" x1="265.821" y1="479.274" x2="350.26" y2="548.767" gradientUnits="userSpaceOnUse">
<stop offset="0.09375" stop-color="#713BDB"/>
<stop offset="0.192708" stop-color="#713BDB"/>
<stop offset="1" stop-color="#F2522E"/>
</linearGradient>
<linearGradient id="paint33_linear" x1="338.964" y1="486.544" x2="432.452" y2="561.765" gradientUnits="userSpaceOnUse">
<stop offset="0.09375" stop-color="#713BDB"/>
<stop offset="0.192708" stop-color="#713BDB"/>
<stop offset="1" stop-color="#F2522E"/>
</linearGradient>
<linearGradient id="paint34_linear" x1="370.079" y1="395.495" x2="468.012" y2="474.375" gradientUnits="userSpaceOnUse">
<stop offset="0.09375" stop-color="#713BDB"/>
<stop offset="0.192708" stop-color="#713BDB"/>
<stop offset="1" stop-color="#F2522E"/>
</linearGradient>
<linearGradient id="paint35_linear" x1="472.669" y1="332.997" x2="543.775" y2="391.517" gradientUnits="userSpaceOnUse">
<stop offset="0.09375" stop-color="#713BDB"/>
<stop offset="0.192708" stop-color="#713BDB"/>
<stop offset="1" stop-color="#F2522E"/>
</linearGradient>
<linearGradient id="paint36_linear" x1="271.136" y1="672.43" x2="339.826" y2="730.642" gradientUnits="userSpaceOnUse">
<stop offset="0.09375" stop-color="#713BDB"/>
<stop offset="0.192708" stop-color="#713BDB"/>
<stop offset="1" stop-color="#F2522E"/>
</linearGradient>
<linearGradient id="paint37_linear" x1="456.557" y1="434.236" x2="527.664" y2="492.757" gradientUnits="userSpaceOnUse">
<stop offset="0.09375" stop-color="#713BDB"/>
<stop offset="0.192708" stop-color="#713BDB"/>
<stop offset="1" stop-color="#F2522E"/>
</linearGradient>
<linearGradient id="paint38_linear" x1="524.382" y1="296.427" x2="584.53" y2="344.201" gradientUnits="userSpaceOnUse">
<stop offset="0.09375" stop-color="#713BDB"/>
<stop offset="0.192708" stop-color="#713BDB"/>
<stop offset="1" stop-color="#F2522E"/>
</linearGradient>
<linearGradient id="paint39_linear" x1="14.4641" y1="748.208" x2="145.996" y2="851.246" gradientUnits="userSpaceOnUse">
<stop offset="0.192708" stop-color="#713BDB"/>
<stop offset="0.572917" stop-color="#713BDB"/>
<stop offset="0.59375" stop-color="#713BDB"/>
<stop offset="1" stop-color="#F2522E"/>
</linearGradient>
<linearGradient id="paint40_linear" x1="126.728" y1="695.052" x2="244.498" y2="791.977" gradientUnits="userSpaceOnUse">
<stop offset="0.192708" stop-color="#713BDB"/>
<stop offset="0.572917" stop-color="#713BDB"/>
<stop offset="0.59375" stop-color="#713BDB"/>
<stop offset="1" stop-color="#F2522E"/>
</linearGradient>
<linearGradient id="paint41_linear" x1="104.815" y1="585.575" x2="207.343" y2="655.465" gradientUnits="userSpaceOnUse">
<stop offset="0.192708" stop-color="#713BDB"/>
<stop offset="0.572917" stop-color="#713BDB"/>
<stop offset="0.59375" stop-color="#713BDB"/>
<stop offset="1" stop-color="#F2522E"/>
</linearGradient>
<linearGradient id="paint42_linear" x1="143.33" y1="515.218" x2="228.806" y2="593.625" gradientUnits="userSpaceOnUse">
<stop offset="0.192708" stop-color="#713BDB"/>
<stop offset="0.572917" stop-color="#713BDB"/>
<stop offset="0.59375" stop-color="#713BDB"/>
<stop offset="1" stop-color="#F2522E"/>
</linearGradient>
<linearGradient id="paint43_linear" x1="271.688" y1="649.285" x2="340.378" y2="707.499" gradientUnits="userSpaceOnUse">
<stop offset="0.192708" stop-color="#713BDB"/>
<stop offset="0.572917" stop-color="#713BDB"/>
<stop offset="0.59375" stop-color="#713BDB"/>
<stop offset="1" stop-color="#F2522E"/>
</linearGradient>
<linearGradient id="paint44_linear" x1="338.292" y1="683.924" x2="416.418" y2="742.941" gradientUnits="userSpaceOnUse">
<stop offset="0.192708" stop-color="#713BDB"/>
<stop offset="0.572917" stop-color="#713BDB"/>
<stop offset="0.59375" stop-color="#713BDB"/>
<stop offset="1" stop-color="#F2522E"/>
</linearGradient>
<linearGradient id="paint45_linear" x1="269.271" y1="561.486" x2="362.196" y2="641.302" gradientUnits="userSpaceOnUse">
<stop offset="0.192708" stop-color="#713BDB"/>
<stop offset="0.572917" stop-color="#713BDB"/>
<stop offset="0.59375" stop-color="#713BDB"/>
<stop offset="1" stop-color="#F2522E"/>
</linearGradient>
<linearGradient id="paint46_linear" x1="266.371" y1="456.128" x2="350.81" y2="525.621" gradientUnits="userSpaceOnUse">
<stop offset="0.192708" stop-color="#713BDB"/>
<stop offset="0.572917" stop-color="#713BDB"/>
<stop offset="0.59375" stop-color="#713BDB"/>
<stop offset="1" stop-color="#F2522E"/>
</linearGradient>
<linearGradient id="paint47_linear" x1="339.516" y1="463.399" x2="433.005" y2="538.62" gradientUnits="userSpaceOnUse">
<stop offset="0.192708" stop-color="#713BDB"/>
<stop offset="0.572917" stop-color="#713BDB"/>
<stop offset="0.59375" stop-color="#713BDB"/>
<stop offset="1" stop-color="#F2522E"/>
</linearGradient>
<linearGradient id="paint48_linear" x1="365.631" y1="379.332" x2="463.564" y2="458.213" gradientUnits="userSpaceOnUse">
<stop offset="0.192708" stop-color="#713BDB"/>
<stop offset="0.572917" stop-color="#713BDB"/>
<stop offset="0.59375" stop-color="#713BDB"/>
<stop offset="1" stop-color="#F2522E"/>
</linearGradient>
<linearGradient id="paint49_linear" x1="473.22" y1="309.852" x2="544.326" y2="368.372" gradientUnits="userSpaceOnUse">
<stop offset="0.192708" stop-color="#713BDB"/>
<stop offset="0.572917" stop-color="#713BDB"/>
<stop offset="0.59375" stop-color="#713BDB"/>
<stop offset="1" stop-color="#F2522E"/>
</linearGradient>
<linearGradient id="paint50_linear" x1="457.108" y1="411.09" x2="528.215" y2="469.611" gradientUnits="userSpaceOnUse">
<stop offset="0.192708" stop-color="#713BDB"/>
<stop offset="0.572917" stop-color="#713BDB"/>
<stop offset="0.59375" stop-color="#713BDB"/>
<stop offset="1" stop-color="#F2522E"/>
</linearGradient>
<linearGradient id="paint51_linear" x1="524.933" y1="273.283" x2="585.082" y2="321.057" gradientUnits="userSpaceOnUse">
<stop offset="0.192708" stop-color="#713BDB"/>
<stop offset="0.572917" stop-color="#713BDB"/>
<stop offset="0.59375" stop-color="#713BDB"/>
<stop offset="1" stop-color="#F2522E"/>
</linearGradient>
</defs>
</svg>
