<svg width="1440" height="643" viewBox="0 0 1440 643" fill="none" xmlns="http://www.w3.org/2000/svg">
<path d="M1440 510.733C777.5 164.354 655 744.452 0 510.733L0 0L1440 0L1440 510.733Z" fill="url(#paint0_linear)" fill-opacity="0.7"/>
<path d="M0 577.999C662.5 186 785 842.5 1440 577.999L1440 -0.000183105L0 -0.000183105L0 577.999Z" fill="url(#paint1_linear)" fill-opacity="0.9"/>
<defs>
<linearGradient id="paint0_linear" x1="1440" y1="216.046" x2="0.0438891" y2="233.021" gradientUnits="userSpaceOnUse">
<stop stop-color="#713BDB"/>
<stop offset="1" stop-color="#F68260"/>
</linearGradient>
<linearGradient id="paint1_linear" x1="-4.4464e-06" y1="244.5" x2="1440" y2="259.5" gradientUnits="userSpaceOnUse">
<stop stop-color="#713BDB"/>
<stop offset="1" stop-color="#F68260"/>
</linearGradient>
</defs>
</svg>
